[
  {
    "Questions": [
      {
        "questionText": "Which Church President was born in Missouri?",
        "answers": [
          "Heber J Grant",
          "George Albert Smith",
          "Joseph F Smith",
          "Wilford Woodruff"
        ],
        "correctAnswer": "Joseph F Smith"
      },
      {
        "questionText": "How did Korihor the anti-Christ die?",
        "answers": [
          "He was hung",
          "He was burned",
          "He was trampled",
          "He was stoned"
        ],
        "correctAnswer": "He was trampled"
      },
      {
        "questionText": "What object did Joseph Smith use to illustrate the eternal nature of man in a sermon in 1844?",
        "answers": [
          "A flannel board",
          "His gold ring",
          "A slate (chalk) board",
          "The Book of Mormon"
        ],
        "correctAnswer": "His gold ring"
      },
      {
        "questionText": "How large was the tax that King Noah placed on his people?",
        "answers": [
          "1/10",
          "1/4",
          "1/5",
          "1/2"
        ],
        "correctAnswer": "1/5"
      },
      {
        "questionText": "What will happen to the sun, moon, and stars before the Savior's Second Coming?",
        "answers": [
          "They will turn to blood",
          "They will refuse to shine",
          "They will fall from the heavens",
          "They will form band"
        ],
        "correctAnswer": "They will refuse to shine"
      },
      {
        "questionText": "Who spoke the entire chapter of 3 Nephi 9?",
        "answers": [
          "Nephi",
          "Mormon",
          "Christ",
          "Mormon"
        ],
        "correctAnswer": "Christ"
      },
      {
        "questionText": "Which Church President lived the longest?",
        "answers": [
          "David O McKay",
          "Joseph Fielding Smith",
          "Ezra Taft Benson",
          "Gordon B Hinkley"
        ],
        "correctAnswer": "Gordon B Hinkley"
      },
      {
        "questionText": "(Family History)Name your sister's father's stepson's mother's husband?",
        "answers": [
          "Uncle",
          "Grandfather",
          "Father",
          "Brother"
        ],
        "correctAnswer": "Father"
      },
      {
        "questionText": "In what chapter of 1st Nephi is American history foretold?",
        "answers": [
          "6",
          "9",
          "13",
          "27"
        ],
        "correctAnswer": "13"
      },
      {
        "questionText": "Who was the first Patriarch in this dispensation?",
        "answers": [
          "Oliver Cowdrey",
          "Parley P Pratt",
          "David Patten",
          "Joseph Smith, Sr."
        ],
        "correctAnswer": "Joseph Smith, Sr."
      }
    ]
  }
]