[
  {
    "Questions": [
      {
        "questionText": "In what year did the Tabernacle Choir make its first public appearance?",
        "answers": [
          "1820",
          "1860",
          "1873",
          "1905"
        ],
        "correctAnswer": "1873"
      },
      {
        "questionText": "What was the original name of Nauvoo?",
        "answers": [
          "Far West",
          "Commerce",
          "Chicago",
          "Quincy"
        ],
        "correctAnswer": "Commerce"
      },
      {
        "questionText": "The tune to what hymn was originally dedicated to a fallen soldier during Crimean War?",
        "answers": [
          "We Thank Thee, O God, For a Prophet",
          "Onward Christian Soldier",
          "How Firm a Foundation",
          "Yankee Doodle Dandy"
        ],
        "correctAnswer": "We Thank Thee, O God, For a Prophet"
      },
      {
        "questionText": "What prominent LDS chemist won virtually every top chemistry prize and was presented with fifteen honorary doctorate degrees?",
        "answers": [
          "Richard G Scott",
          "Henry Eyring Sr.",
          "Dallin H Oaks",
          "Henry Eyring Jr"
        ],
        "correctAnswer": "Henry Eyring Sr."
      },
      {
        "questionText": "How many verses of the Book of Mormon did Abinadom write?",
        "answers": [
          "2",
          "3",
          "4",
          "5"
        ],
        "correctAnswer": "2"
      },
      {
        "questionText": "How old was Joseph F Smith when he became a member of the Quorum of the Twelve?",
        "answers": [
          "25",
          "28",
          "30",
          "32"
        ],
        "correctAnswer": "28"
      },
      {
        "questionText": "From where was the woman to whom Jesus talked at Jacob's well?",
        "answers": [
          "Jerusalem",
          "Galilee",
          "Samaria",
          "The North Pole"
        ],
        "correctAnswer": "Samaria"
      },
      {
        "questionText": "How many days was Nephi bound to the ship before Laman and Lemuel would repent?",
        "answers": [
          "1",
          "2",
          "3",
          "4"
        ],
        "correctAnswer": "4"
      },
      {
        "questionText": "How long did King Lamoni wait before he answered Ammon's question?",
        "answers": [
          "5 minutes",
          "1 hour",
          "1 day",
          "He never answered it"
        ],
        "correctAnswer": "1 hour"
      },
      {
        "questionText": "In which state is Adam-ondi-Ahman located?",
        "answers": [
          "Illinois",
          "Missouri",
          "Ohio",
          "New York"
        ],
        "correctAnswer": "Missouri"
      }
    ]
  }
]